C:\Users\Yann\workspace\DNS\dns\src\test\java\DNS\app\DnsItemTest.java
C:\Users\Yann\workspace\DNS\dns\src\test\java\DNS\app\AdresseIPTest.java
C:\Users\Yann\workspace\DNS\dns\src\test\java\DNS\app\DnsTest.java
C:\Users\Yann\workspace\DNS\dns\src\test\java\DNS\app\RechercheIPTest.java
C:\Users\Yann\workspace\DNS\dns\src\test\java\DNS\app\RechercheNomTest.java
C:\Users\Yann\workspace\DNS\dns\src\test\java\DNS\app\NomMachineTest.java
